Visual Analytics - Michael Djohan - Take-home Exercise 4
…
  #Convert Month to factors and Years to integers for ordering purposes
  mutate(Month = factor(Month, levels = month.abb),
         Year = as.integer(Year),
         Month_Year = make_date(Year, Month),
         .before = 1) |> 
  
  #Multiply values by 1000
  mutate(Import_SGD = Import_SGD*1000) 

sgimport_cln

# A tibble: 4,032 × 5
   Month_Year Countries  Year Month Import_SGD
   <date>     <chr>     <int> <fct>      <dbl>
 1 2022-12-01 Belgium    2022 Dec    103655000
 2 2022-11-01 Belgium    2022 Nov    121773000
 3 2022-10-01 Belgium    2022 Oct     88796000
 4 2022-09-01 Belgium    2022 Sep    215978000
 5 2022-08-01 Belgium    2022 Aug    132917000
 6 2022-07-01 Belgium    2022 Jul    224676000
 7 2022-06-01 Belgium    2022 Jun    114704000
 8 2022-05-01 Belgium    2022 May    116817000
 9 2022-04-01 Belgium    2022 Apr    146603000
10 2022-03-01 Belgium    2022 Mar    319393000
# … with 4,022 more rows
…
Calculating Change in Trade Balance (%)

sgtrade_cln_norm <- sgtrade_cln |> 
  mutate(Normalised_Trade_Balance = normalit(Trade_Balance_SGD)) |> 
  arrange(Countries, Month_Year) |> 
  group_by(Countries) |> 
  mutate(Pct_Trade_Balance_Change = round((Trade_Balance_SGD - lag(Trade_Balance_SGD))*100/lag(Trade_Balance_SGD), 2)) |> 
  ungroup()

sgtrade_cln

# A tibble: 1,872 × 10
   Month_Year Countries  Year Month Import_SGD Export_…¹ Trade…² Trade…³ Total…⁴
   <date>     <chr>     <int> <fct>      <dbl>     <dbl>   <dbl>   <dbl>   <dbl>
 1 2022-12-01 Belgium    2022 Dec    103655000    4.32e8  3.29e8  5.36e8 2.77e10
 2 2022-11-01 Belgium    2022 Nov    121773000    7.57e8  6.35e8  8.79e8 2.77e10
 3 2022-10-01 Belgium    2022 Oct     88796000    3.51e8  2.62e8  4.39e8 2.77e10
 4 2022-09-01 Belgium    2022 Sep    215978000    3.87e8  1.71e8  6.03e8 2.77e10
 5 2022-08-01 Belgium    2022 Aug    132917000    5.71e8  4.38e8  7.04e8 2.77e10
 6 2022-07-01 Belgium    2022 Jul    224676000    9.92e8  7.67e8  1.22e9 2.77e10
 7 2022-06-01 Belgium    2022 Jun    114704000    5.89e8  4.74e8  7.03e8 2.77e10
 8 2022-05-01 Belgium    2022 May    116817000    6.18e8  5.01e8  7.34e8 2.77e10
 9 2022-04-01 Belgium    2022 Apr    146603000    6.68e8  5.21e8  8.15e8 2.77e10
10 2022-03-01 Belgium    2022 Mar    319393000    1.45e9  1.13e9  1.77e9 2.77e10
# … with 1,862 more rows, 1 more variable: Pct_Total_Trade_Volumes <dbl>, and
#   abbreviated variable names ¹​Export_SGD, ²​Trade_Balance_SGD,
#   ³​Trade_Volumes_SGD, ⁴​Total_Trade_Volumes_SGD
…
Modifying the data

sgtrade_cln_qtr <- sgtrade_cln |> 
  mutate(Quarter = factor(paste0("Q", quarter(Month_Year), " ", year(Month_Year))), .after = Month) |> 
  filter(Quarter %in% c("Q3 2020", "Q3 2022")) |> 
  group_by(Countries, Quarter) |> 
  summarise(Total_Trade_Balance_BSGD = round(sum(Trade_Balance_SGD)/1000000000, 2),
            Total_Trade_Volumes_BSGD = round(sum(Trade_Volumes_SGD)/1000000000, 2),
            Total_Import_BSGD = round(sum(Import_SGD)/1000000000, 2),
            Total_Export_BSGD = round(sum(Export_SGD)/1000000000, 2))

sgtrade_cln_qtr

# A tibble: 104 × 6
# Groups:   Countries [52]
   Countries  Quarter Total_Trade_Balance_BSGD Total_Trade_Vol…¹ Total…² Total…³
   <chr>      <fct>                      <dbl>             <dbl>   <dbl>   <dbl>
 1 Australia  Q3 2020                     1.98              4.37    1.2     3.18
 2 Australia  Q3 2022                     3.17              9.31    3.07    6.24
 3 Austria    Q3 2020                    -0.14              0.28    0.21    0.07
 4 Austria    Q3 2022                    -0.23              0.48    0.35    0.13
 5 Bahrain    Q3 2020                    -0.13              0.17    0.15    0.02
 6 Bahrain    Q3 2022                    -0.08              0.28    0.18    0.1 
 7 Bangladesh Q3 2020                     0.74              0.85    0.06    0.79
 8 Bangladesh Q3 2022                     1.56              1.71    0.07    1.64
 9 Belgium    Q3 2020                     0.75              1.32    0.28    1.04
10 Belgium    Q3 2022                     1.38              2.52    0.57    1.95
# … with 94 more rows, and abbreviated variable names
#   ¹​Total_Trade_Volumes_BSGD, ²​Total_Import_BSGD, ³​Total_Export_BSGD
…
sgtrade_cln_ani <- sgtrade_cln |> 
  select(Month_Year, Countries, Import_SGD, Export_SGD, Trade_Volumes_SGD) |> 
  
  mutate(Import_SGD = round(Import_SGD/1000000000, 1),
         Export_SGD = round(Export_SGD/1000000000, 1),
         Trade_Volumes_SGD = round(Trade_Volumes_SGD/1000000000, 1)) |> 
  
  left_join(regions_cln, by = c('Countries' = 'Countries'))

sgtrade_cln_ani

# A tibble: 1,872 × 6
   Month_Year Countries Import_SGD Export_SGD Trade_Volumes_SGD Region          
   <date>     <chr>          <dbl>      <dbl>             <dbl> <chr>           
 1 2022-12-01 Belgium          0.1        0.4               0.5 Europe and Cent…
 2 2022-11-01 Belgium          0.1        0.8               0.9 Europe and Cent…
 3 2022-10-01 Belgium          0.1        0.4               0.4 Europe and Cent…
 4 2022-09-01 Belgium          0.2        0.4               0.6 Europe and Cent…
 5 2022-08-01 Belgium          0.1        0.6               0.7 Europe and Cent…
 6 2022-07-01 Belgium          0.2        1                 1.2 Europe and Cent…
 7 2022-06-01 Belgium          0.1        0.6               0.7 Europe and Cent…
 8 2022-05-01 Belgium          0.1        0.6               0.7 Europe and Cent…
 9 2022-04-01 Belgium          0.1        0.7               0.8 Europe and Cent…
10 2022-03-01 Belgium          0.3        1.4               1.8 Europe and Cent…
# … with 1,862 more rows
…
