Visual Analytics - Michael Djohan - Hands-on_Ex07: Visualising and Analysing Geographic Data
…
3.1 Importing the data

The data set use for this hands-on exercise is called SGPools_svy21. The data is in csv file format.

Figure below shows the first 15 records of SGPools_svy21.csv. It consists of seven columns. The XCOORD and YCOORD columns are the x-coordinates and y-coordinates of SingPools outlets and branches. They are in Singapore SVY21 Projected Coordinates System.

Notice that sgpools is aspatial (not based on Geographic Coordinates Systems)

sgpools <- read_csv("data/aspatial/SGPools_svy21.csv")

list(sgpools)

[[1]]
# A tibble: 306 × 7
   NAME                            ADDRESS POSTC…¹ XCOORD YCOORD OUTLE…² Gp1Gp…³
   <chr>                           <chr>     <dbl>  <dbl>  <dbl> <chr>     <dbl>
 1 Livewire (Marina Bay Sands)     2 Bayf…   18972 30842. 29599. Branch        5
 2 Livewire (Resorts World Sentos… 26 Sen…   98138 26704. 26526. Branch       11
 3 SportsBuzz (Kranji)             Lotus …  738078 20118. 44888. Branch        0
 4 SportsBuzz (PoMo)               1 Sele…  188306 29777. 31382. Branch       44
 5 Prime Serangoon North           Blk 54…  552542 32239. 39519. Branch        0
 6 Singapore Pools Woodlands Cent… 1A Woo…  731001 21012. 46987. Branch        3
 7 Singapore Pools 64 Circuit Rd … Blk 64…  370064 33990. 34356. Branch       17
 8 Singapore Pools 88 Circuit Rd … Blk 88…  370088 33847. 33976. Branch       16
 9 Singapore Pools Anchorvale Rd … Blk 30…  540308 33910. 41275. Branch       21
10 Singapore Pools Ang Mo Kio N2 … Blk 20…  560202 29246. 38943. Branch       25
# … with 296 more rows, and abbreviated variable names ¹​POSTCODE,
#   ²​`OUTLET TYPE`, ³​`Gp1Gp2 Winnings`
…
