Visual Analytics - Michael Djohan - Hands-on Exercise 9: Information Dashboard Design
…
3.2.1 Data preparation

Group by month and product

sales_report <- coffeechain %>%
  filter(Date >= "2013-01-01") %>%
  mutate(Month = month(Date)) %>%
  group_by(Month, Product) %>%
  summarise(Sales = sum(Sales)) %>%
  ungroup() %>%
  select(Month, Product, Sales)

sales_report

# A tibble: 156 × 3
   Month Product           Sales
   <dbl> <chr>             <dbl>
 1     1 Amaretto           1210
 2     1 Caffe Latte        1653
 3     1 Caffe Mocha        3604
 4     1 Chamomile          3313
 5     1 Colombian          5439
 6     1 Darjeeling         3178
 7     1 Decaf Espresso     3493
 8     1 Decaf Irish Cream  2656
 9     1 Earl Grey          2867
10     1 Green Tea          1399
# … with 146 more rows
…
Compute the 25th and 75th quantiles

quarts <- sales_report %>%
  group_by(Product) %>%
  summarise(quart1 = quantile(Sales, 
                              0.25),
            quart2 = quantile(Sales, 
                              0.75)) %>%
  right_join(sales_report)

quarts

# A tibble: 156 × 5
   Product  quart1 quart2 Month Sales
   <chr>     <dbl>  <dbl> <dbl> <dbl>
 1 Amaretto  1058.   1167     1  1210
 2 Amaretto  1058.   1167     2  1144
 3 Amaretto  1058.   1167     3  1100
 4 Amaretto  1058.   1167     4  1117
 5 Amaretto  1058.   1167     5  1057
 6 Amaretto  1058.   1167     6  1059
 7 Amaretto  1058.   1167     7  1016
 8 Amaretto  1058.   1167     8  1039
 9 Amaretto  1058.   1167     9  1188
10 Amaretto  1058.   1167    10  1167
# … with 146 more rows
…
Group by product and month

report <- coffeechain %>%
  mutate(Year = year(Date)) %>%
  filter(Year == "2013") %>%
  mutate (Month = month(Date, 
                        label = TRUE, 
                        abbr = TRUE)) %>%
  group_by(Product, Month) %>%
  summarise(Sales = sum(Sales)) %>%
  ungroup()

report

# A tibble: 156 × 3
   Product  Month Sales
   <chr>    <ord> <dbl>
 1 Amaretto Jan    1210
 2 Amaretto Feb    1144
 3 Amaretto Mar    1100
 4 Amaretto Apr    1117
 5 Amaretto May    1057
 6 Amaretto Jun    1059
 7 Amaretto Jul    1016
 8 Amaretto Aug    1039
 9 Amaretto Sep    1188
10 Amaretto Oct    1167
# … with 146 more rows
…
