Visual Analytics - Michael Djohan - Hands-on Exercise 8: Visualising Network Data
…
3.1 Using lubridate package to change the time

GAStech_edges <- GAStech_edges %>%
  
  #dmy() transforms the SentDate to Date data type
  mutate(SendDate = dmy(SentDate)) %>%
  
  #wday() returns the day of the week as a decimal number or an ordered factor if label is TRUE. The argument abbr is FALSE keep the day spelled in full, i.e. Monday. the values in the Weekday field are in ordinal scale.
  mutate(Weekday = wday(SentDate,
                        label = TRUE,
                        abbr = FALSE))

GAStech_edges

# A tibble: 9,063 × 10
   source target SentDate SentTime Subject    MainS…¹ sourc…² targe…³ SendDate  
    <dbl>  <dbl> <chr>    <time>   <chr>      <chr>   <chr>   <chr>   <date>    
 1     43     41 6/1/2014 08:39    GT-Seismi… Work r… Sven.F… Isak.B… 2014-01-06
 2     43     40 6/1/2014 08:39    GT-Seismi… Work r… Sven.F… Lucas.… 2014-01-06
 3     44     51 6/1/2014 08:58    Inspectio… Work r… Kanon.… Felix.… 2014-01-06
 4     44     52 6/1/2014 08:58    Inspectio… Work r… Kanon.… Hideki… 2014-01-06
 5     44     53 6/1/2014 08:58    Inspectio… Work r… Kanon.… Inga.F… 2014-01-06
 6     44     45 6/1/2014 08:58    Inspectio… Work r… Kanon.… Varja.… 2014-01-06
 7     44     44 6/1/2014 08:58    Inspectio… Work r… Kanon.… Kanon.… 2014-01-06
 8     44     46 6/1/2014 08:58    Inspectio… Work r… Kanon.… Stenig… 2014-01-06
 9     44     48 6/1/2014 08:58    Inspectio… Work r… Kanon.… Hennie… 2014-01-06
10     44     49 6/1/2014 08:58    Inspectio… Work r… Kanon.… Isia.V… 2014-01-06
# … with 9,053 more rows, 1 more variable: Weekday <ord>, and abbreviated
#   variable names ¹​MainSubject, ²​sourceLabel, ³​targetLabel
…
A close examination of GAStech_edges data.frame reveals that it consists of individual e-mail flow records. This is not very useful for visualisation.

In view of this, we will aggregate the individual by date, senders, receivers, main subject and day of the week.

GAStech_edges_aggregated <- GAStech_edges %>%
  filter(MainSubject == "Work related") %>%
  group_by(source, target, Weekday) %>%
    summarise(Weight = n()) %>%
  filter(source!=target) %>%
  filter(Weight > 1) %>%
  ungroup()

GAStech_edges_aggregated

# A tibble: 1,372 × 4
   source target Weekday   Weight
    <dbl>  <dbl> <ord>      <int>
 1      1      2 Sunday         5
 2      1      2 Monday         2
 3      1      2 Tuesday        3
 4      1      2 Wednesday      4
 5      1      2 Friday         6
 6      1      3 Sunday         5
 7      1      3 Monday         2
 8      1      3 Tuesday        3
 9      1      3 Wednesday      4
10      1      3 Friday         6
# … with 1,362 more rows
…
